Getting Started with peruopen • peruopen
…
Description: Data Completa - Ubigeos

Access individual resources: x[1], x[2], etc. | Full tibble: as_tibble(x)

# Download the ubigeo data
po_get(ubigeo$resources[4, ])
#> Processing 1 resources...
#> Warning: Coercing text to numeric in F1530 / R1530C6: '1'
#> Warning: Coercing text to numeric in F1531 / R1531C6: '2'
#> Warning: Coercing text to numeric in F1532 / R1532C6: '2'
#> Warning: Coercing text to numeric in F1533 / R1533C6: '1'
#> Warning: Coercing text to numeric in F1534 / R1534C6: '2'
#> Warning: Coercing text to numeric in F1535 / R1535C6: '2'
#> # A tibble: 1,910 × 7
#>    IDDIST NOMBDEP  NOMBPROV    NOMBDIST    NOM_CAPITAL..LEGAL. COD_.REG_NAT
#>    <chr>  <chr>    <chr>       <chr>       <chr>                      <dbl>
#>  1 010101 AMAZONAS CHACHAPOYAS CHACHAPOYAS CHACHAPOYAS                    2
#>  2 010102 AMAZONAS CHACHAPOYAS ASUNCION    ASUNCION                       2
#>  3 010103 AMAZONAS CHACHAPOYAS BALSAS      BALSAS                         3
#>  4 010104 AMAZONAS CHACHAPOYAS CHETO       CHETO                          2
#>  5 010105 AMAZONAS CHACHAPOYAS CHILIQUIN   CHILIQUIN                      2
#>  6 010106 AMAZONAS CHACHAPOYAS CHUQUIBAMBA CHUQUIBAMBA                    2
#>  7 010107 AMAZONAS CHACHAPOYAS GRANADA     GRANADA                        2
#>  8 010108 AMAZONAS CHACHAPOYAS HUANCAS     HUANCAS                        2
#>  9 010109 AMAZONAS CHACHAPOYAS LA JALCA    LA JALCA                       2
#> 10 010110 AMAZONAS CHACHAPOYAS LEIMEBAMBA  LEIMEBAMBA                     2
#> # ℹ 1,900 more rows
#> # ℹ 1 more variable: REGION.NATURAL <chr>
…
